<svg width="30" height="30" viewBox="0 0 30 30" fill="none"
    xmlns="http://www.w3.org/2000/svg">
    <g id="sol">
        <rect width="30" height="30" fill="white"/>
        <path id="Ellipse 1" d="M24 15C24 19.9706 19.9706 24 15 24C12.4448 24 10.1382 22.9351 8.5 21.225C6.95145 19.6084 6 17.4153 6 15C6 10.0294 10.0294 6 15 6C16.8401 6 18.5512 6.55223 19.9767 7.5C22.4017 9.11238 24 11.8695 24 15Z" fill="#FF9518" fill-opacity="0.98"/>
        <path id="Rectangle 12" fill-rule="evenodd" clip-rule="evenodd" d="M10 6H6V10L10 6Z" fill="#FF9518" fill-opacity="0.98"/>
        <path id="Rectangle 13" fill-rule="evenodd" clip-rule="evenodd" d="M20 24H24V20L20 24Z" fill="#FF9518" fill-opacity="0.98"/>
        <path id="Rectangle 15" fill-rule="evenodd" clip-rule="evenodd" d="M6 20V24H10L6 20Z" fill="#FF9518" fill-opacity="0.98"/>
        <path id="Rectangle 16" fill-rule="evenodd" clip-rule="evenodd" d="M4.82843 12L2 14.8284L4.82843 17.6569V12Z" fill="#FF9518" fill-opacity="0.98"/>
        <path id="Rectangle 17" fill-rule="evenodd" clip-rule="evenodd" d="M24.8284 17.6569L27.6569 14.8284L24.8284 12V17.6569Z" fill="#FF9518" fill-opacity="0.98"/>
        <path id="Rectangle 18" fill-rule="evenodd" clip-rule="evenodd" d="M17.6568 4.82843L14.8284 2L11.9999 4.82843H17.6568Z" fill="#FF9518" fill-opacity="0.98"/>
        <path id="Rectangle 19" fill-rule="evenodd" clip-rule="evenodd" d="M11.9999 24.8284L14.8284 27.6569L17.6568 24.8284H11.9999Z" fill="#FF9518" fill-opacity="0.98"/>
        <path id="Rectangle 14" fill-rule="evenodd" clip-rule="evenodd" d="M24 10V6H20L24 10Z" fill="#FF9518" fill-opacity="0.98"/>
    </g>
</svg>
